{
  "__type__": "cc.Material",
  "_name": "",
  "_objFlags": 0,
  "__editorExtras__": {},
  "_native": "",
  "_effectAsset": {
    "__uuid__": "c8f66d17-351a-48da-a12c-0212d28575c4",
    "__expectedType__": "cc.EffectAsset"
  },
  "_techIdx": 0,
  "_defines": [
    {
      "USE_ALBEDO_MAP": true
    },
    {},
    {},
    {},
    {},
    {}
  ],
  "_states": [
    {
      "rasterizerState": {
        "cullMode": 0
      },
      "depthStencilState": {},
      "blendState": {
        "targets": [
          {}
        ]
      }
    },
    {
      "rasterizerState": {},
      "depthStencilState": {},
      "blendState": {
        "targets": [
          {}
        ]
      }
    },
    {
      "rasterizerState": {},
      "depthStencilState": {},
      "blendState": {
        "targets": [
          {}
        ]
      }
    },
    {
      "rasterizerState": {},
      "depthStencilState": {},
      "blendState": {
        "targets": [
          {}
        ]
      }
    },
    {
      "rasterizerState": {},
      "depthStencilState": {},
      "blendState": {
        "targets": [
          {}
        ]
      }
    },
    {
      "rasterizerState": {},
      "depthStencilState": {},
      "blendState": {
        "targets": [
          {}
        ]
      }
    }
  ],
  "_props": [
    {
      "mainColor": {
        "__type__": "cc.Color",
        "r": 68,
        "g": 195,
        "b": 195,
        "a": 255
      },
      "roughness": 0,
      "mainTexture": {
        "__uuid__": "d80607c1-50c2-4d10-82d6-7fc5c856ea44@7e0c3",
        "__expectedType__": "cc.Texture2D"
      }
    },
    {},
    {},
    {},
    {},
    {}
  ]
}